UK comparison
…
england

## # A tibble: 64 x 8
##    location week_number   all non_covid covid average excess country
##    <fct>          <int> <int>     <dbl> <int>   <dbl>  <dbl> <chr>  
##  1 Hospital          11  4582      4577     5    4872   -290 England
##  2 Hospital          12  4388      4288   100    4651   -263 England
##  3 Hospital          13  4750      4262   488    4392    358 England
##  4 Hospital          14  7420      4435  2985    4543   2877 England
##  5 Hospital          15  8124      3397  4727    4696   3428 England
##  6 Hospital          16  8909      3081  5828    4642   4267 England
##  7 Hospital          17  7757      3193  4564    4562   3195 England
##  8 Hospital          18  5999      2956  3043    4372   1627 England
##  9 Hospital          19  4157      2298  1859    4208    -51 England
## 10 Hospital          20  5065      3265  1800    4444    621 England
## #  with 54 more rows
…
sc

## # A tibble: 64 x 8
##    location  week_number average   all covid non_covid excess country 
##    <fct>           <int>   <dbl> <dbl> <dbl>     <dbl>  <dbl> <chr>   
##  1 Care Home          11    281.   258     0       258  -22.6 Scotland
##  2 Care Home          12    265.   274     1       273    8.6 Scotland
##  3 Care Home          13    257.   261     5       256    3.6 Scotland
##  4 Care Home          14    252.   443    49       394  191.  Scotland
##  5 Care Home          15    251.   600   189       411  349.  Scotland
##  6 Care Home          16    248    681   303       378  433   Scotland
##  7 Care Home          17    247.   689   341       348  442.  Scotland
##  8 Care Home          18    258.   638   315       323  380.  Scotland
##  9 Care Home          19    238.   489   238       251  251.  Scotland
## 10 Care Home          20    238.   436   187       249  198.  Scotland
## #  with 54 more rows
…
wales

## # A tibble: 64 x 8
##    location week_number   all non_covid covid average excess country
##    <fct>          <int> <int>     <dbl> <int>   <dbl>  <dbl> <chr>  
##  1 Hospital          11   376       376     0     393    -17 Wales  
##  2 Hospital          12   364       362     2     373     -9 Wales  
##  3 Hospital          13   344       325    19     357    -13 Wales  
##  4 Hospital          14   441       326   115     372     69 Wales  
##  5 Hospital          15   439       217   222     376     63 Wales  
##  6 Hospital          16   510       246   264     362    148 Wales  
##  7 Hospital          17   462       202   260     361    101 Wales  
##  8 Hospital          18   384       218   166     350     34 Wales  
##  9 Hospital          19   284       160   124     342    -58 Wales  
## 10 Hospital          20   353       248   105     353      0 Wales  
## #  with 54 more rows
…
ni <- 
  bind_rows(ni_hosp, ni_ch, ni_home, ni_other) %>% 
  mutate(country = "Northern Ireland") %>% 
  separate(week_number, c("drop", "week_number"), sep = " ") %>% 
  mutate(week_number = as.integer(week_number)) %>% 
    select(-drop)

ni

## # A tibble: 64 x 6
##    location week_number   all average excess country         
##    <chr>          <int> <dbl>   <dbl>  <dbl> <chr>           
##  1 Hospital          11   138    142.     -4 Northern Ireland
##  2 Hospital          12   134    151.    -17 Northern Ireland
##  3 Hospital          13   164    154.     10 Northern Ireland
##  4 Hospital          14   161    146.     15 Northern Ireland
##  5 Hospital          15   145    136.      9 Northern Ireland
##  6 Hospital          16   158    137.     21 Northern Ireland
##  7 Hospital          17   121    149.    -28 Northern Ireland
##  8 Hospital          18   117    132     -15 Northern Ireland
##  9 Hospital          19   135    138.     -3 Northern Ireland
## 10 Hospital          20   125    134.     -9 Northern Ireland
## #  with 54 more rows

Join together

uk <- bind_rows(england, sc, wales, ni)

uk %>%
  mutate(country = factor(country, 
                          levels = c("England", "Scotland", 
                                     "Wales", "Northern Ireland"))) -> uk

uk

## # A tibble: 256 x 8
##    location week_number   all non_covid covid average excess country
##    <chr>          <int> <dbl>     <dbl> <dbl>   <dbl>  <dbl> <fct>  
##  1 Hospital          11  4582      4577     5    4872   -290 England
##  2 Hospital          12  4388      4288   100    4651   -263 England
##  3 Hospital          13  4750      4262   488    4392    358 England
##  4 Hospital          14  7420      4435  2985    4543   2877 England
##  5 Hospital          15  8124      3397  4727    4696   3428 England
##  6 Hospital          16  8909      3081  5828    4642   4267 England
##  7 Hospital          17  7757      3193  4564    4562   3195 England
##  8 Hospital          18  5999      2956  3043    4372   1627 England
##  9 Hospital          19  4157      2298  1859    4208    -51 England
## 10 Hospital          20  5065      3265  1800    4444    621 England
## #  with 246 more rows
…
uk %>% 
  mutate(pct_change = (excess / average * 100)) %>% 
  arrange(country, location, week_number) 

## # A tibble: 256 x 9
##    location  week_number   all non_covid covid average excess country pct_change
##    <chr>           <int> <dbl>     <dbl> <dbl>   <dbl>  <dbl> <fct>        <dbl>
##  1 Care Home          11  2372      2372     0    2409    -37 England     -1.54 
##  2 Care Home          12  2236      2234     2    2216     20 England      0.903
##  3 Care Home          13  2352      2332    20    2113    239 England     11.3  
##  4 Care Home          14  3592      3405   187    2114   1478 England     69.9  
##  5 Care Home          15  4704      3936   768    2129   2575 England    121.   
##  6 Care Home          16  7012      5084  1928    2134   4878 England    229.   
##  7 Care Home          17  7587      4918  2669    2147   5440 England    253.   
##  8 Care Home          18  6144      3815  2329    1978   4166 England    211.   
##  9 Care Home          19  4050      2460  1590    1905   2145 England    113.   
## 10 Care Home          20  4279      2687  1592    2012   2267 England    113.   
## #  with 246 more rows
…
uk %>% 
  group_by(country, week_number) %>%  
  summarise(all = sum(all),
            average = sum(average), 
            excess = all - average) %>% 
  mutate(pct_change = (excess / average * 100)) 

## # A tibble: 64 x 6
## # Groups:   country [4]
##    country week_number   all average excess pct_change
##    <fct>         <int> <dbl>   <dbl>  <dbl>      <dbl>
##  1 England          11 10323   10454   -131     -1.25 
##  2 England          12  9905    9867     38      0.385
##  3 England          13 10413    9444    969     10.3  
##  4 England          14 15439    9617   5822     60.5  
##  5 England          15 17563    9825   7738     78.8  
##  6 England          16 21157    9811  11346    116.   
##  7 England          17 20841    9775  11066    113.   
##  8 England          18 17004    9279   7725     83.3  
##  9 England          19 11946    8943   3003     33.6  
## 10 England          20 13783    9528   4255     44.7  
## #  with 54 more rows
…
